-------------------------------------------------------------------------------
Test set: ru.school21.NumbersProcessorTest
-------------------------------------------------------------------------------
Tests run: 1, Failures: 0, Errors: 0, Skipped: 0, Time elapsed: 0.609 s - in ru.school21.NumbersProcessorTest
